{
  "data": [
    { "Date": "1923-01-01", "WaterLevel": "1.78" },
    { "Date": "1923-01-02", "WaterLevel": "1.75" },
    { "Date": "1923-01-03", "WaterLevel": "1.61" },
    { "Date": "1923-01-04", "WaterLevel": "1.61" },
    { "Date": "1923-01-05", "WaterLevel": "1.59" },
    { "Date": "1923-01-06", "WaterLevel": "1.51" },
    { "Date": "1923-01-07", "WaterLevel": "1.42" },
    { "Date": "1923-01-08", "WaterLevel": "1.4" },
    { "Date": "1923-01-09", "WaterLevel": "1.4" },
    { "Date": "1923-01-10", "WaterLevel": "1.39" },
    { "Date": "1923-01-11", "WaterLevel": "1.39" },
    { "Date": "1923-01-12", "WaterLevel": "1.37" },
    { "Date": "1923-01-13", "WaterLevel": "1.35" },
    { "Date": "1923-01-14", "WaterLevel": "1.32" },
    { "Date": "1923-01-15", "WaterLevel": "1.3" },
    { "Date": "1923-01-16", "WaterLevel": "1.27" },
    { "Date": "1923-01-17", "WaterLevel": "1.24" },
    { "Date": "1923-01-18", "WaterLevel": "1.23" },
    { "Date": "1923-01-19", "WaterLevel": "1.22" },
    { "Date": "1923-01-20", "WaterLevel": "1.22" },
    { "Date": "1923-01-21", "WaterLevel": "1.2" },
    { "Date": "1923-01-22", "WaterLevel": "1.17" },
    { "Date": "1923-01-23", "WaterLevel": "1.18" },
    { "Date": "1923-01-24", "WaterLevel": "1.15" },
    { "Date": "1923-01-25", "WaterLevel": "1.11" },
    { "Date": "1923-01-26", "WaterLevel": "1.09" },
    { "Date": "1923-01-27", "WaterLevel": "1.07" },
    { "Date": "1923-01-28", "WaterLevel": "1.06" },
    { "Date": "1923-01-29", "WaterLevel": "1.05" },
    { "Date": "1923-01-30", "WaterLevel": "1.05" },
    { "Date": "1923-01-31", "WaterLevel": "1.04" },
    { "Date": "1923-02-01", "WaterLevel": "1.02" },
    { "Date": "1923-02-02", "WaterLevel": "1.01" },
    { "Date": "1923-02-03", "WaterLevel": "0.99" },
    { "Date": "1923-02-04", "WaterLevel": "0.98" },
    { "Date": "1923-02-05", "WaterLevel": "0.97" },
    { "Date": "1923-02-06", "WaterLevel": "0.92" },
    { "Date": "1923-02-07", "WaterLevel": "0.87" },
    { "Date": "1923-02-08", "WaterLevel": "0.83" },
    { "Date": "1923-02-09", "WaterLevel": "0.82" },
    { "Date": "1923-02-10", "WaterLevel": "0.84" },
    { "Date": "1923-02-11", "WaterLevel": "0.83" },
    { "Date": "1923-02-12", "WaterLevel": "0.87" },
    { "Date": "1923-02-13", "WaterLevel": "0.84" },
    { "Date": "1923-02-14", "WaterLevel": "0.83" },
    { "Date": "1923-02-15", "WaterLevel": "0.83" },
    { "Date": "1923-02-16", "WaterLevel": "0.82" },
    { "Date": "1923-02-17", "WaterLevel": "0.8" },
    { "Date": "1923-02-18", "WaterLevel": "0.8" },
    { "Date": "1923-02-19", "WaterLevel": "0.79" },
    { "Date": "1923-02-20", "WaterLevel": "0.73" },
    { "Date": "1923-02-21", "WaterLevel": "0.71" },
    { "Date": "1923-02-22", "WaterLevel": "0.68" },
    { "Date": "1923-02-23", "WaterLevel": "0.67" },
    { "Date": "1923-02-24", "WaterLevel": "0.64" },
    { "Date": "1923-02-25", "WaterLevel": "0.64" },
    { "Date": "1923-02-26", "WaterLevel": "0.62" },
    { "Date": "1923-02-27", "WaterLevel": "0.61" },
    { "Date": "1923-02-28", "WaterLevel": "0.61" },
    { "Date": "1923-03-01", "WaterLevel": "0.59" },
    { "Date": "1923-03-02", "WaterLevel": "0.58" },
    { "Date": "1923-03-03", "WaterLevel": "0.56" },
    { "Date": "1923-03-04", "WaterLevel": "0.55" },
    { "Date": "1923-03-05", "WaterLevel": "0.54" },
    { "Date": "1923-03-06", "WaterLevel": "0.54" },
    { "Date": "1923-03-07", "WaterLevel": "0.52" },
    { "Date": "1923-03-08", "WaterLevel": "0.51" },
    { "Date": "1923-03-09", "WaterLevel": "0.51" },
    { "Date": "1923-03-10", "WaterLevel": "0.5" },
    { "Date": "1923-03-11", "WaterLevel": "0.49" },
    { "Date": "1923-03-12", "WaterLevel": "0.49" },
    { "Date": "1923-03-13", "WaterLevel": "0.48" },
    { "Date": "1923-03-14", "WaterLevel": "0.48" },
    { "Date": "1923-03-15", "WaterLevel": "0.49" },
    { "Date": "1923-03-16", "WaterLevel": "0.47" },
    { "Date": "1923-03-17", "WaterLevel": "0.46" },
    { "Date": "1923-03-18", "WaterLevel": "0.46" },
    { "Date": "1923-03-19", "WaterLevel": "0.44" },
    { "Date": "1923-03-20", "WaterLevel": "0.44" },
    { "Date": "1923-03-21", "WaterLevel": "0.44" },
    { "Date": "1923-03-22", "WaterLevel": "0.44" },
    { "Date": "1923-03-23", "WaterLevel": "0.43" },
    { "Date": "1923-03-24", "WaterLevel": "0.42" },
    { "Date": "1923-03-25", "WaterLevel": "0.4" },
    { "Date": "1923-03-26", "WaterLevel": "0.37" },
    { "Date": "1923-03-27", "WaterLevel": "0.36" },
    { "Date": "1923-03-28", "WaterLevel": "0.36" },
    { "Date": "1923-03-29", "WaterLevel": "0.35" },
    { "Date": "1923-03-30", "WaterLevel": "0.34" },
    { "Date": "1923-03-31", "WaterLevel": "0.34" },
    { "Date": "1923-04-01", "WaterLevel": "0.34" },
    { "Date": "1923-04-02", "WaterLevel": "0.33" },
    { "Date": "1923-04-03", "WaterLevel": "0.32" },
    { "Date": "1923-04-04", "WaterLevel": "0.32" },
    { "Date": "1923-04-05", "WaterLevel": "0.32" },
    { "Date": "1923-04-06", "WaterLevel": "0.3" },
    { "Date": "1923-04-07", "WaterLevel": "0.29" },
    { "Date": "1923-04-08", "WaterLevel": "0.29" },
    { "Date": "1923-04-09", "WaterLevel": "0.31" },
    { "Date": "1923-04-10", "WaterLevel": "0.32" },
    { "Date": "1923-04-11", "WaterLevel": "0.29" },
    { "Date": "1923-04-12", "WaterLevel": "0.29" }
  ]
}
